{
  "name": "notes",
  "version": "0.0.1",
  "description": "Apunts i notes.",
  "author": {
    "name": "Xorxe Oural",
    "url": "https://our.al"
  },
  "basePath": "/notes",
  "license": "CC-BY-SA",
  "language": "ca_es"
}
